{
    "id": "lulzbot_redgum_base",
    "name": "LulzBot TAZ Workhorse",
    "inherits": "lulzbot_taz_base",
    "version": 2,
    "metadata":
    {
        "platform": "redgum_bed.stl",
        "platform_offset":
        [
            -30,
            -10,
            5
        ],
        "visible": false,
        "printer_info_link": "https://www.lulzbot.com/store/printers/lulzbot-taz-workhorse?pk_campaign=software-cura",
        "preferred_material": "*PolyLite_PLA*",
        "preferred_quality": "*Standard*",
        "firmware_last_version": "2.0.0.144",
        "priority": "99",
        "default_eeprom_state": false
    },
    "overrides":
    {
        "firmware_machine_type":
        {
            "resolve": "'TAZ Workhorse Edition'"
        },
        "machine_width":
        {
            "default_value": 280
        },
        "machine_depth":
        {
            "default_value": 280
        },
        "machine_height":
        {
            "default_value": 250
        },
        "machine_wipe_gcode":
        {
            "default_value_from_file": "lulzbot_redgum_wipe"
        },
        "machine_baudrate":
        {
            "default_value": "250000"
        }
    }
}
